mesure-order8-5-10-18/Order8average50total02unknown.csv

,Channel 1,Channel 2
Revision:           ,0,0
Type:               ,average,average
Start:              ,0,0
Points:             ,71000,71000
Count:              ,48,48
XDispRange:         ,7.10000E+00,7.10000E+00
XDispOrg:           ,-3.67099999999998E-02,-3.67099999999998E-02
XInc:               ,1.00000000000000E-04,1.00000000000000E-04
XOrg:               ,-3.66100000000001E-02,-3.66100000000001E-02
Units:              ,Second,Second
XReference:         ,4,4
YDispRange:         ,4.00000E-01,8.00000E+00
YDispOrg:           ,5.87999999523163E-01,2.35999989509583E+00
YInc:               ,6.587944310779E-06,1.31762197229732E-04
YOrg:               ,5.94640647865265E-01,2.49281629480757E+00
Units:              ,Volt,Volt
YReference:         ,1,1
Frame:              ,DSOS104A:MY55510295,DSOS104A:MY55510295
Date:               ,10 MAY 2018,10 MAY 2018
Time:               ,18:08:09,18:08:09
Max Bandwidth:      ,5000,5000
Min Bandwidth:      ,0,0
Time Tags (Channel 1),Channel 1,Channel 2
-3.67100E-02, 4.864732E-01, 5.043930E-01
-3.66100E-02, 4.828762E-01, 5.005718E-01
-3.65100E-02, 4.867894E-01, 5.020213E-01
-3.64100E-02, 4.875207E-01, 5.058424E-01
-3.63100E-02, 4.835415E-01, 5.020213E-01
-3.62100E-02, 4.873757E-01, 5.086094E-01
-3.61100E-02, 4.878632E-01, 5.053153E-01
-3.60100E-02, 4.799050E-01, 4.984637E-01
-3.59100E-02, 4.808800E-01, 5.025483E-01
-3.58100E-02, 4.875273E-01, 5.046565E-01
-3.57100E-02, 4.837194E-01, 5.067647E-01
-3.56100E-02, 4.859066E-01, 5.028118E-01
-3.55100E-02, 4.918028E-01, 5.067647E-01
-3.54100E-02, 4.927449E-01, 5.105858E-01
-3.53100E-02, 4.906170E-01, 5.072917E-01
-3.52100E-02, 4.918226E-01, 5.171739E-01
-3.51100E-02, 4.907422E-01, 5.130893E-01
-3.50100E-02, 4.921520E-01, 5.051836E-01
-3.49100E-02, 4.875668E-01, 5.029436E-01
-3.48100E-02, 4.864600E-01, 5.088729E-01
-3.47100E-02, 4.831529E-01, 5.061059E-01
-3.46100E-02, 4.848526E-01, 5.012307E-01
-3.45100E-02, 4.838973E-01, 5.029436E-01
-3.44100E-02, 4.823557E-01, 5.038660E-01
-3.43100E-02, 4.854784E-01, 5.018895E-01
-3.42100E-02, 4.863744E-01, 5.055788E-01
-3.41100E-02, 4.885747E-01, 5.171739E-01
-3.40100E-02, 4.877315E-01, 5.038660E-01
-3.39100E-02, 4.879357E-01, 5.062376E-01
-3.38100E-02, 4.788312E-01, 4.943790E-01
-3.37100E-02, 4.856826E-01, 5.095317E-01
-3.36100E-02, 4.884562E-01, 5.095317E-01
-3.35100E-02, 4.833769E-01, 5.038660E-01
-3.34100E-02, 4.931665E-01, 5.153292E-01
-3.33100E-02, 4.947740E-01, 5.153292E-01
-3.32100E-02, 4.921125E-01, 5.100588E-01
-3.31100E-02, 4.939900E-01, 5.126940E-01
-3.30100E-02, 4.878501E-01, 5.075552E-01
-3.29100E-02, 4.842069E-01, 5.033389E-01
-3.28100E-02, 4.856497E-01, 5.096635E-01
-3.27100E-02, 4.802608E-01, 4.984637E-01
-3.26100E-02, 4.797008E-01, 5.022848E-01
-3.25100E-02, 4.835152E-01, 5.033389E-01
-3.24100E-02, 4.849119E-01, 5.047883E-01
-3.23100E-02, 4.796876E-01, 4.931932E-01
-3.22100E-02, 4.877315E-01, 4.975413E-01
-3.21100E-02, 4.885155E-01, 5.079505E-01
-3.20100E-02, 4.808668E-01, 5.018895E-01
-3.19100E-02, 4.824084E-01, 4.997813E-01
-3.18100E-02, 4.839368E-01, 5.030754E-01
-3.17100E-02, 4.841608E-01, 5.112446E-01
-3.16100E-02, 4.819539E-01, 5.034707E-01
-3.15100E-02, 4.894773E-01, 5.041295E-01
-3.14100E-02, 4.923101E-01, 5.083458E-01
-3.13100E-02, 4.955119E-01, 5.177010E-01
-3.12100E-02, 4.874482E-01, 5.124305E-01
-3.11100E-02, 4.826390E-01, 5.022848E-01
-3.10100E-02, 4.871122E-01, 5.024166E-01
-3.09100E-02, 4.881926E-01, 5.099270E-01
-3.08100E-02, 4.882849E-01, 5.071600E-01
-3.07100E-02, 4.815849E-01, 5.072917E-01
-3.06100E-02, 4.863019E-01, 5.054471E-01
-3.05100E-02, 4.880082E-01, 5.049200E-01
-3.04100E-02, 4.858012E-01, 5.100588E-01
-3.03100E-02, 4.888910E-01, 5.082141E-01
-3.02100E-02, 4.914800E-01, 5.112446E-01
-3.01100E-02, 4.877842E-01, 5.054471E-01
-3.00100E-02, 4.852412E-01, 5.038660E-01
-2.99100E-02, 4.805243E-01, 4.987272E-01
-2.98100E-02, 4.826127E-01, 4.993860E-01
-2.97100E-02, 4.851029E-01, 5.047883E-01
-2.96100E-02, 4.863414E-01, 5.051836E-01
-2.95100E-02, 4.845693E-01, 5.065012E-01
-2.94100E-02, 4.884693E-01, 5.090047E-01
-2.93100E-02, 4.934564E-01, 5.130893E-01
-2.92100E-02, 4.858342E-01, 5.021530E-01
-2.91100E-02, 4.938122E-01, 5.095317E-01
-2.90100E-02, 4.902152E-01, 5.109811E-01
-2.89100E-02, 4.864995E-01, 5.068964E-01
-2.88100E-02, 4.866708E-01, 5.108493E-01
-2.87100E-02, 4.856892E-01, 5.083458E-01
-2.86100E-02, 4.823557E-01, 5.021530E-01
-2.85100E-02, 4.843980E-01, 5.029436E-01
-2.84100E-02, 4.912890E-01, 5.150657E-01
-2.83100E-02, 4.914800E-01, 5.157245E-01
-2.82100E-02, 4.880938E-01, 5.126940E-01
-2.81100E-02, 4.895102E-01, 5.078188E-01
-2.80100E-02, 4.865720E-01, 5.016260E-01
-2.79100E-02, 4.849119E-01, 5.016260E-01
-2.78100E-02, 4.830804E-01, 5.026801E-01
-2.77100E-02, 4.899121E-01, 5.092682E-01
-2.76100E-02, 4.896420E-01, 5.024166E-01
-2.75100E-02, 4.861175E-01, 5.078188E-01
-2.74100E-02, 4.850765E-01, 5.029436E-01
-2.73100E-02, 4.870266E-01, 4.976731E-01
-2.72100E-02, 4.812489E-01, 4.982001E-01
-2.71100E-02, 4.813939E-01, 5.014942E-01
-2.70100E-02, 4.802410E-01, 5.022848E-01
-2.69100E-02, 4.819341E-01, 5.030754E-01
-2.68100E-02, 4.832714E-01, 5.045248E-01
-2.67100E-02, 4.770590E-01, 4.966190E-01
-2.66100E-02, 4.823557E-01, 4.995178E-01
-2.65100E-02, 4.897606E-01, 5.036024E-01
-2.64100E-02, 4.842728E-01, 5.041295E-01
-2.63100E-02, 4.889766E-01, 5.087411E-01
-2.62100E-02, 4.925736E-01, 5.046565E-01
-2.61100E-02, 4.894575E-01, 5.092682E-01
-2.60100E-02, 4.898660E-01, 5.095317E-01
-2.59100E-02, 4.833241E-01, 5.036024E-01
-2.58100E-02, 4.859659E-01, 5.078188E-01
-2.57100E-02, 4.847537E-01, 5.020213E-01
-2.56100E-02, 4.854060E-01, 5.058424E-01
-2.55100E-02, 4.843585E-01, 5.014942E-01
-2.54100E-02, 4.846747E-01, 5.066329E-01
-2.53100E-02, 4.892731E-01, 5.112446E-01
-2.52100E-02, 4.805902E-01, 4.968825E-01
-2.51100E-02, 4.886604E-01, 5.061059E-01
-2.50100E-02, 4.871320E-01, 5.005718E-01
-2.49100E-02, 4.844573E-01, 5.028118E-01
-2.48100E-02, 4.827312E-01, 5.047883E-01
-2.47100E-02, 4.838051E-01, 5.083458E-01
-2.46100E-02, 4.885286E-01, 5.075552E-01
-2.45100E-02, 4.850634E-01, 5.070282E-01
-2.44100E-02, 4.858803E-01, 5.042612E-01
-2.43100E-02, 4.844968E-01, 5.001766E-01
-2.42100E-02, 4.889041E-01, 5.061059E-01
-2.41100E-02, 4.879225E-01, 5.076870E-01
-2.40100E-02, 4.937331E-01, 5.105858E-01
-2.39100E-02, 4.941218E-01, 5.134846E-01
-2.38100E-02, 4.909662E-01, 5.049200E-01
-2.37100E-02, 4.918028E-01, 5.122987E-01
-2.36100E-02, 4.871649E-01, 4.988590E-01
-2.35100E-02, 4.884035E-01, 5.100588E-01
-2.34100E-02, 4.889305E-01, 5.141434E-01
-2.33100E-02, 4.805045E-01, 5.004401E-01
-2.32100E-02, 4.851885E-01, 5.039977E-01
-2.31100E-02, 4.883442E-01, 5.043930E-01
-2.30100E-02, 4.875997E-01, 5.034707E-01
-2.29100E-02, 4.873296E-01, 5.067647E-01
-2.28100E-02, 4.834823E-01, 4.983319E-01
-2.27100E-02, 4.922310E-01, 5.140116E-01
-2.26100E-02, 4.862953E-01, 5.022848E-01
-2.25100E-02, 4.884101E-01, 5.101905E-01
-2.24100E-02, 4.892006E-01, 5.029436E-01
-2.23100E-02, 4.886274E-01, 5.061059E-01
-2.22100E-02, 4.886670E-01, 5.087411E-01
-2.21100E-02, 4.874021E-01, 5.022848E-01
-2.20100E-02, 4.933971E-01, 5.125622E-01
-2.19100E-02, 4.883178E-01, 5.087411E-01
-2.18100E-02, 4.892269E-01, 5.047883E-01
-2.17100E-02, 4.866708E-01, 5.076870E-01
-2.16100E-02, 4.865918E-01, 5.046565E-01
-2.15100E-02, 4.822108E-01, 5.041295E-01
-2.14100E-02, 4.845231E-01, 5.075552E-01
-2.13100E-02, 4.818419E-01, 4.991225E-01
-2.12100E-02, 4.807746E-01, 5.033389E-01
-2.11100E-02, 4.828235E-01, 5.003083E-01
-2.10100E-02, 4.810315E-01, 4.992543E-01
-2.09100E-02, 4.844441E-01, 5.009671E-01
-2.08100E-02, 4.854257E-01, 5.036024E-01
-2.07100E-02, 4.847010E-01, 5.039977E-01
-2.06100E-02, 4.900768E-01, 5.029436E-01
-2.05100E-02, 4.800631E-01, 4.971461E-01
-2.04100E-02, 4.883705E-01, 5.057106E-01
-2.03100E-02, 4.901163E-01, 5.050518E-01
-2.02100E-02, 4.890491E-01, 5.122987E-01
-2.01100E-02, 4.887263E-01, 5.067647E-01
-2.00100E-02, 4.934300E-01, 5.142751E-01
-1.99100E-02, 4.947740E-01, 5.173057E-01
-1.98100E-02, 4.937529E-01, 5.122987E-01
-1.97100E-02, 4.868948E-01, 5.021530E-01
-1.96100E-02, 4.865786E-01, 5.041295E-01
-1.95100E-02, 4.869277E-01, 5.103223E-01
-1.94100E-02, 4.857880E-01, 5.004401E-01
-1.93100E-02, 4.784557E-01, 4.968825E-01
-1.92100E-02, 4.777507E-01, 4.912167E-01
-1.91100E-02, 4.882453E-01, 5.094000E-01
-1.90100E-02, 4.813083E-01, 5.014942E-01
-1.89100E-02, 4.825270E-01, 5.058424E-01
-1.88100E-02, 4.839764E-01, 5.067647E-01
-1.87100E-02, 4.855838E-01, 5.046565E-01
-1.86100E-02, 4.884562E-01, 5.092682E-01
-1.85100E-02, 4.900768E-01, 5.053153E-01
-1.84100E-02, 4.850304E-01, 5.033389E-01
-1.83100E-02, 4.868421E-01, 5.072917E-01
-1.82100E-02, 4.857287E-01, 5.024166E-01
-1.81100E-02, 4.891677E-01, 5.063694E-01
-1.80100E-02, 4.924419E-01, 5.101905E-01
-1.79100E-02, 4.873428E-01, 5.091364E-01
-1.78100E-02, 4.891677E-01, 5.092682E-01
-1.77100E-02, 4.960784E-01, 5.129575E-01
-1.76100E-02, 4.929360E-01, 5.088729E-01
-1.75100E-02, 4.971325E-01, 5.086094E-01
-1.74100E-02, 4.938188E-01, 5.095317E-01
-1.73100E-02, 4.948860E-01, 5.170422E-01
-1.72100E-02, 4.834164E-01, 5.036024E-01
-1.71100E-02, 4.839698E-01, 5.003083E-01
-1.70100E-02, 4.898133E-01, 5.083458E-01
-1.69100E-02, 4.819868E-01, 4.995178E-01
-1.68100E-02, 4.837458E-01, 5.055788E-01
-1.67100E-02, 4.845759E-01, 5.072917E-01
-1.66100E-02, 4.841411E-01, 5.045248E-01
-1.65100E-02, 4.842465E-01, 5.053153E-01
-1.64100E-02, 4.851556E-01, 5.010989E-01
-1.63100E-02, 4.912165E-01, 5.090047E-01
-1.62100E-02, 4.852610E-01, 5.030754E-01
-1.61100E-02, 4.870859E-01, 5.062376E-01
-1.60100E-02, 4.851754E-01, 5.067647E-01
-1.59100E-02, 4.906302E-01, 5.058424E-01
-1.58100E-02, 4.908871E-01, 5.170422E-01
-1.57100E-02, 4.820132E-01, 5.001766E-01
-1.56100E-02, 4.859264E-01, 5.068964E-01
-1.55100E-02, 4.907488E-01, 5.137481E-01
-1.54100E-02, 4.902547E-01, 5.065012E-01
-1.53100E-02, 4.849909E-01, 4.983319E-01
-1.52100E-02, 4.896091E-01, 5.099270E-01
-1.51100E-02, 4.940427E-01, 5.105858E-01
-1.50100E-02, 4.857222E-01, 5.020213E-01
-1.49100E-02, 4.839764E-01, 5.028118E-01
-1.48100E-02, 4.841279E-01, 4.972778E-01
-1.47100E-02, 4.850239E-01, 5.066329E-01
-1.46100E-02, 4.859857E-01, 5.091364E-01
-1.45100E-02, 4.880016E-01, 5.065012E-01
-1.44100E-02, 4.903667E-01, 5.083458E-01
-1.43100E-02, 4.891347E-01, 5.083458E-01
-1.42100E-02, 4.868882E-01, 5.030754E-01
-1.41100E-02, 4.905511E-01, 5.095317E-01
-1.40100E-02, 4.881729E-01, 5.095317E-01
-1.39100E-02, 4.876722E-01, 5.104541E-01
-1.38100E-02, 4.877512E-01, 5.067647E-01
-1.37100E-02, 4.901822E-01, 5.095317E-01
-1.36100E-02, 4.845627E-01, 5.049200E-01
-1.35100E-02, 4.858869E-01, 5.041295E-01
-1.34100E-02, 4.859461E-01, 5.063694E-01
-1.33100E-02, 4.880477E-01, 5.065012E-01
-1.32100E-02, 4.852478E-01, 5.059741E-01
-1.31100E-02, 4.875207E-01, 5.039977E-01
-1.30100E-02, 4.892665E-01, 5.067647E-01
-1.29100E-02, 4.867301E-01, 5.063694E-01
-1.28100E-02, 4.905314E-01, 5.099270E-01
-1.27100E-02, 4.911111E-01, 5.136163E-01
-1.26100E-02, 4.858012E-01, 5.021530E-01
-1.25100E-02, 4.861438E-01, 5.055788E-01
-1.24100E-02, 4.860581E-01, 5.017577E-01
-1.23100E-02, 4.899253E-01, 5.157245E-01
-1.22100E-02, 4.825929E-01, 4.985954E-01
-1.21100E-02, 4.845363E-01, 5.066329E-01
-1.20100E-02, 4.842267E-01, 5.000448E-01
-1.19100E-02, 4.882519E-01, 5.074235E-01
-1.18100E-02, 4.899846E-01, 5.050518E-01
-1.17100E-02, 4.867565E-01, 5.099270E-01
-1.16100E-02, 4.837392E-01, 5.042612E-01
-1.15100E-02, 4.920927E-01, 5.071600E-01
-1.14100E-02, 4.925078E-01, 5.149339E-01
-1.13100E-02, 4.860186E-01, 5.032071E-01
-1.12100E-02, 4.897211E-01, 5.121669E-01
-1.11100E-02, 4.856629E-01, 5.079505E-01
-1.10100E-02, 4.824743E-01, 4.985954E-01
-1.09100E-02, 4.868619E-01, 5.033389E-01
-1.08100E-02, 4.850502E-01, 5.050518E-01
-1.07100E-02, 4.851358E-01, 5.045248E-01
-1.06100E-02, 4.847669E-01, 5.029436E-01
-1.05100E-02, 4.857880E-01, 5.065012E-01
-1.04100E-02, 4.887197E-01, 5.088729E-01
-1.03100E-02, 4.829486E-01, 5.007036E-01
-1.02100E-02, 4.865984E-01, 5.059741E-01
-1.01100E-02, 4.835547E-01, 5.045248E-01
-1.00100E-02, 4.863282E-01, 5.037342E-01
-9.9100E-03, 4.889239E-01, 5.059741E-01
-9.8100E-03, 4.799116E-01, 4.968825E-01
-9.7100E-03, 4.844112E-01, 5.058424E-01
-9.6100E-03, 4.924616E-01, 5.119034E-01
-9.5100E-03, 4.896156E-01, 5.007036E-01
-9.4100E-03, 4.890293E-01, 5.107176E-01
-9.3100E-03, 4.902876E-01, 5.074235E-01
-9.2100E-03, 4.938188E-01, 5.177010E-01
-9.1100E-03, 4.860318E-01, 5.063694E-01
-9.0100E-03, 4.902613E-01, 5.103223E-01
-8.9100E-03, 4.822833E-01, 5.013624E-01
-8.8100E-03, 4.892533E-01, 5.094000E-01
-8.7100E-03, 4.861636E-01, 5.058424E-01
-8.6100E-03, 4.791540E-01, 5.007036E-01
-8.5100E-03, 4.771512E-01, 5.020213E-01
-8.4100E-03, 4.828630E-01, 5.004401E-01
-8.3100E-03, 4.840752E-01, 5.004401E-01
-8.2100E-03, 4.794768E-01, 4.992543E-01
-8.1100E-03, 4.870397E-01, 5.080823E-01
-8.0100E-03, 4.836338E-01, 5.057106E-01
-7.9100E-03, 4.857946E-01, 5.037342E-01
-7.8100E-03, 4.893323E-01, 5.070282E-01
-7.7100E-03, 4.822371E-01, 4.987272E-01
-7.6100E-03, 4.866181E-01, 4.989907E-01
-7.5100E-03, 4.870200E-01, 5.116399E-01
-7.4100E-03, 4.857024E-01, 5.066329E-01
-7.3100E-03, 4.921849E-01, 5.075552E-01
-7.2100E-03, 4.895102E-01, 5.063694E-01
-7.1100E-03, 4.846549E-01, 5.075552E-01
-7.0100E-03, 4.815915E-01, 5.030754E-01
-6.9100E-03, 4.853005E-01, 5.049200E-01
-6.8100E-03, 4.840225E-01, 5.059741E-01
-6.7100E-03, 4.866445E-01, 5.033389E-01
-6.6100E-03, 4.853796E-01, 5.063694E-01
-6.5100E-03, 4.874087E-01, 5.000448E-01
-6.4100E-03, 4.878369E-01, 5.043930E-01
-6.3100E-03, 4.863414E-01, 5.075552E-01
-6.2100E-03, 4.847603E-01, 4.980684E-01
-6.1100E-03, 4.881992E-01, 5.071600E-01
-6.0100E-03, 4.842267E-01, 5.053153E-01
-5.9100E-03, 4.867038E-01, 5.029436E-01
-5.8100E-03, 4.829882E-01, 4.972778E-01
-5.7100E-03, 4.898792E-01, 5.108493E-01
-5.6100E-03, 4.920268E-01, 5.109811E-01
-5.5100E-03, 4.857551E-01, 5.041295E-01
-5.4100E-03, 4.892072E-01, 5.109811E-01
-5.3100E-03, 4.908805E-01, 5.097952E-01
-5.2100E-03, 4.918951E-01, 5.074235E-01
-5.1100E-03, 4.782580E-01, 4.970143E-01
-5.0100E-03, 4.866576E-01, 5.038660E-01
-4.9100E-03, 4.843058E-01, 4.975413E-01
-4.8100E-03, 4.861240E-01, 5.084776E-01
-4.7100E-03, 4.814466E-01, 4.906897E-01
-4.6100E-03, 4.830343E-01, 5.043930E-01
-4.5100E-03, 4.855377E-01, 5.018895E-01
-4.4100E-03, 4.846615E-01, 5.026801E-01
-4.3100E-03, 4.891874E-01, 5.071600E-01
-4.2100E-03, 4.890030E-01, 5.128257E-01
-4.1100E-03, 4.875668E-01, 5.068964E-01
-4.0100E-03, 4.874680E-01, 5.034707E-01
-3.9100E-03, 4.833571E-01, 5.087411E-01
-3.8100E-03, 4.907158E-01, 5.121669E-01
-3.7100E-03, 4.889503E-01, 5.054471E-01
-3.6100E-03, 4.953076E-01, 5.125622E-01
-3.5100E-03, 4.896156E-01, 5.050518E-01
-3.4100E-03, 4.897342E-01, 5.041295E-01
-3.3100E-03, 4.941877E-01, 5.116399E-01
-3.2100E-03, 4.924419E-01, 5.134846E-01
-3.1100E-03, 4.947411E-01, 5.101905E-01
-3.0100E-03, 4.850897E-01, 5.058424E-01
-2.9100E-03, 4.837919E-01, 5.007036E-01
-2.8100E-03, 4.829882E-01, 4.918756E-01
-2.7100E-03, 4.807483E-01, 4.991225E-01
-2.6100E-03, 4.848723E-01, 5.041295E-01
-2.5100E-03, 4.858342E-01, 5.030754E-01
-2.4100E-03, 4.880477E-01, 5.061059E-01
-2.3100E-03, 4.893587E-01, 5.047883E-01
-2.2100E-03, 4.880543E-01, 5.075552E-01
-2.1100E-03, 4.855311E-01, 5.079505E-01
-2.0100E-03, 4.856431E-01, 5.084776E-01
-1.9100E-03, 4.873823E-01, 5.113764E-01
-1.8100E-03, 4.833637E-01, 5.067647E-01
-1.7100E-03, 4.860516E-01, 5.050518E-01
-1.6100E-03, 4.882783E-01, 5.111129E-01
-1.5100E-03, 4.883639E-01, 5.082141E-01
-1.4100E-03, 4.907488E-01, 5.042612E-01
-1.3100E-03, 4.962365E-01, 5.157245E-01
-1.2100E-03, 4.927910E-01, 5.124305E-01
-1.1100E-03, 4.876458E-01, 5.076870E-01
-1.0100E-03, 4.832714E-01, 5.043930E-01
-9.100E-04, 4.789498E-01, 5.013624E-01
-8.100E-04, 4.762355E-01, 4.960920E-01
-7.100E-04, 4.854125E-01, 5.055788E-01
-6.100E-04, 4.768153E-01, 4.902944E-01
-5.100E-04, 4.772040E-01, 4.968825E-01
-4.100E-04, 4.859989E-01, 5.021530E-01
-3.100E-04, 4.826851E-01, 5.032071E-01
-2.100E-04, 4.884101E-01, 5.066329E-01
-1.100E-04, 4.866642E-01, 5.039977E-01
-1.00E-05, 4.871847E-01, 2.0995061E+00
9.00E-05, 4.955580E-01, 4.7781000E+00
1.900E-04, 4.989244E-01, 4.7887726E+00
2.900E-04, 4.949519E-01, 4.7848196E+00
3.900E-04, 4.910189E-01, 4.7856102E+00
4.900E-04, 4.903139E-01, 4.7842927E+00
5.900E-04, 5.087339E-01, 4.7784953E+00
6.900E-04, 5.029760E-01, 4.7788906E+00
7.900E-04, 5.007427E-01, 4.7856102E+00
8.900E-04, 4.970798E-01, 4.7892995E+00
9.900E-04, 4.905841E-01, 4.7848196E+00
1.0900E-03, 4.889371E-01, 4.7853470E+00
1.1900E-03, 4.944380E-01, 4.7806034E+00
1.2900E-03, 4.877512E-01, 4.7808666E+00
1.3900E-03, 4.998467E-01, 4.7811303E+00
1.4900E-03, 4.909530E-01, 4.7791538E+00
1.5900E-03, 4.891611E-01, 4.7908807E+00
1.6900E-03, 4.891413E-01, 4.7950974E+00
1.7900E-03, 4.924748E-01, 4.7883773E+00
1.8900E-03, 4.972708E-01, 4.7867961E+00
1.9900E-03, 4.929623E-01, 4.7846880E+00
2.0900E-03, 4.912033E-01, 4.7915397E+00
2.1900E-03, 4.987926E-01, 4.7852149E+00
2.2900E-03, 4.981338E-01, 4.7871914E+00
2.3900E-03, 4.992670E-01, 4.7878504E+00
2.4900E-03, 4.870332E-01, 4.7858739E+00
2.5900E-03, 4.808734E-01, 4.7861371E+00
2.6900E-03, 4.948333E-01, 4.7915397E+00
2.7900E-03, 5.041947E-01, 4.7873230E+00
2.8900E-03, 4.952681E-01, 4.7915397E+00
2.9900E-03, 4.908608E-01, 4.7902222E+00
3.0900E-03, 4.906434E-01, 4.7864008E+00
3.1900E-03, 4.924748E-01, 4.7864008E+00
3.2900E-03, 4.939373E-01, 4.7932525E+00
3.3900E-03, 4.960257E-01, 4.7862692E+00
3.4900E-03, 4.956041E-01, 4.7854786E+00
3.5900E-03, 5.036414E-01, 4.7858739E+00
3.6900E-03, 4.955711E-01, 4.7833705E+00
3.7900E-03, 5.037072E-01, 4.7860055E+00
3.8900E-03, 4.998533E-01, 4.7786269E+00
3.9900E-03, 4.855179E-01, 4.7890363E+00
4.0900E-03, 4.916250E-01, 4.7871914E+00
4.1900E-03, 5.037072E-01, 4.7848196E+00
4.2900E-03, 5.077061E-01, 4.7890363E+00
4.3900E-03, 4.983974E-01, 4.7844243E+00
4.4900E-03, 5.007756E-01, 4.7914081E+00
4.5900E-03, 4.946884E-01, 4.7936478E+00
4.6900E-03, 4.934894E-01, 4.7864008E+00
4.7900E-03, 4.955580E-01, 4.7842927E+00
4.8900E-03, 4.803267E-01, 4.7856102E+00
4.9900E-03, 4.790222E-01, 4.7873230E+00
5.0900E-03, 4.932719E-01, 4.7835021E+00
5.1900E-03, 5.062172E-01, 4.7899585E+00
5.2900E-03, 4.976266E-01, 4.7879820E+00
5.3900E-03, 5.091950E-01, 4.7879820E+00
5.4900E-03, 5.170215E-01, 4.7836337E+00
5.5900E-03, 5.149397E-01, 4.7795491E+00
5.6900E-03, 5.071923E-01, 4.7856102E+00
5.7900E-03, 5.149133E-01, 4.7829752E+00
5.8900E-03, 5.003540E-01, 4.7844243E+00
5.9900E-03, 5.075151E-01, 4.7849517E+00
6.0900E-03, 5.080224E-01, 4.7891679E+00
6.1900E-03, 5.119619E-01, 4.7844243E+00
6.2900E-03, 4.992472E-01, 4.7886410E+00
6.3900E-03, 5.042079E-01, 4.7848196E+00
6.4900E-03, 4.959466E-01, 4.7856102E+00
6.5900E-03, 5.030155E-01, 4.7840290E+00
6.6900E-03, 5.133454E-01, 4.7877183E+00
6.7900E-03, 5.043529E-01, 4.7870598E+00
6.8900E-03, 5.134771E-01, 4.7864008E+00
6.9900E-03, 5.097682E-01, 4.7842927E+00
7.0900E-03, 5.111977E-01, 4.7820525E+00
7.1900E-03, 5.093202E-01, 4.7804713E+00
7.2900E-03, 5.039049E-01, 4.7825799E+00
7.3900E-03, 4.921257E-01, 4.7910128E+00
7.4900E-03, 4.978242E-01, 4.7871914E+00
7.5900E-03, 5.039905E-01, 4.7904854E+00
7.6900E-03, 5.071330E-01, 4.7821846E+00
7.7900E-03, 5.098538E-01, 4.7853470E+00
7.8900E-03, 5.077984E-01, 4.7920666E+00
7.9900E-03, 5.071527E-01, 4.7927256E+00
8.0900E-03, 5.050644E-01, 4.7891679E+00
8.1900E-03, 4.978176E-01, 4.7856102E+00
8.2900E-03, 4.930611E-01, 4.7870598E+00
8.3900E-03, 5.040696E-01, 4.7910128E+00
8.4900E-03, 5.079960E-01, 4.7891679E+00
8.5900E-03, 5.119949E-01, 4.7811303E+00
8.6900E-03, 5.135036E-01, 4.7886410E+00
8.7900E-03, 5.152954E-01, 4.7886410E+00
8.8900E-03, 4.992538E-01, 4.7883773E+00
8.9900E-03, 5.082002E-01, 4.7821846E+00
9.0900E-03, 5.135431E-01, 4.7840290E+00
9.1900E-03, 5.073570E-01, 4.7828431E+00
9.2900E-03, 5.063029E-01, 4.7902222E+00
9.3900E-03, 5.022645E-01, 4.7838974E+00
9.4900E-03, 5.058286E-01, 4.7860055E+00
9.5900E-03, 4.950705E-01, 4.7849517E+00
9.6900E-03, 5.001827E-01, 4.7867961E+00
9.7900E-03, 4.992077E-01, 4.7920666E+00
9.8900E-03, 5.012038E-01, 4.7850833E+00
9.9900E-03, 5.069090E-01, 4.7838974E+00
