mesure-order8-5-10-18/Order8average50total01unknown.csv

,Channel 1,Channel 2
Revision:           ,0,0
Type:               ,average,average
Start:              ,0,0
Points:             ,71000,71000
Count:              ,50,50
XDispRange:         ,7.10000E+00,7.10000E+00
XDispOrg:           ,-3.67099999999998E-02,-3.67099999999998E-02
XInc:               ,1.00000000000000E-04,1.00000000000000E-04
XOrg:               ,-3.66100000000001E-02,-3.66100000000001E-02
Units:              ,Second,Second
XReference:         ,4,4
YDispRange:         ,4.00000E-01,8.00000E+00
YDispOrg:           ,5.87999999523163E-01,2.35999989509583E+00
YInc:               ,6.587944310779E-06,1.31762197229732E-04
YOrg:               ,5.94640647865265E-01,2.49281629480757E+00
Units:              ,Volt,Volt
YReference:         ,1,1
Frame:              ,DSOS104A:MY55510295,DSOS104A:MY55510295
Date:               ,10 MAY 2018,10 MAY 2018
Time:               ,17:59:11,17:59:11
Max Bandwidth:      ,5000,5000
Min Bandwidth:      ,0,0
Time Tags (Channel 1),Channel 1,Channel 2
-3.67100E-02, 4.714593E-01, 4.908215E-01
-3.66100E-02, 4.800961E-01, 4.987272E-01
-3.65100E-02, 4.753198E-01, 4.918756E-01
-3.64100E-02, 4.757678E-01, 4.983319E-01
-3.63100E-02, 4.855114E-01, 5.068964E-01
-3.62100E-02, 4.766374E-01, 5.012307E-01
-3.61100E-02, 4.752737E-01, 4.962237E-01
-3.60100E-02, 4.680731E-01, 4.901627E-01
-3.59100E-02, 4.711167E-01, 4.873956E-01
-3.58100E-02, 4.717821E-01, 4.914803E-01
-3.57100E-02, 4.690876E-01, 4.921391E-01
-3.56100E-02, 4.742064E-01, 4.968825E-01
-3.55100E-02, 4.748916E-01, 4.912167E-01
-3.54100E-02, 4.731392E-01, 4.967508E-01
-3.53100E-02, 4.770261E-01, 4.951696E-01
-3.52100E-02, 4.751287E-01, 4.967508E-01
-3.51100E-02, 4.774082E-01, 4.918756E-01
-3.50100E-02, 4.799445E-01, 5.016260E-01
-3.49100E-02, 4.732248E-01, 4.947743E-01
-3.48100E-02, 4.640940E-01, 4.842333E-01
-3.47100E-02, 4.758600E-01, 5.008354E-01
-3.46100E-02, 4.781790E-01, 4.991225E-01
-3.45100E-02, 4.687450E-01, 4.913485E-01
-3.44100E-02, 4.760576E-01, 4.999131E-01
-3.43100E-02, 4.773555E-01, 4.918756E-01
-3.42100E-02, 4.746412E-01, 4.958284E-01
-3.41100E-02, 4.694697E-01, 4.926662E-01
-3.40100E-02, 4.771512E-01, 4.929297E-01
-3.39100E-02, 4.835679E-01, 4.983319E-01
-3.38100E-02, 4.768680E-01, 4.938520E-01
-3.37100E-02, 4.748784E-01, 4.943790E-01
-3.36100E-02, 4.734620E-01, 4.888451E-01
-3.35100E-02, 4.680269E-01, 4.877909E-01
-3.34100E-02, 4.691930E-01, 4.835745E-01
-3.33100E-02, 4.662153E-01, 4.881862E-01
-3.32100E-02, 4.715317E-01, 4.934567E-01
-3.31100E-02, 4.725133E-01, 4.942473E-01
-3.30100E-02, 4.722103E-01, 4.963555E-01
-3.29100E-02, 4.725792E-01, 4.908215E-01
-3.28100E-02, 4.838710E-01, 5.026801E-01
-3.27100E-02, 4.811633E-01, 5.041295E-01
-3.26100E-02, 4.744107E-01, 4.939838E-01
-3.25100E-02, 4.774016E-01, 4.935885E-01
-3.24100E-02, 4.790749E-01, 4.974096E-01
-3.23100E-02, 4.741735E-01, 4.929297E-01
-3.22100E-02, 4.778496E-01, 4.968825E-01
-3.21100E-02, 4.840291E-01, 5.051836E-01
-3.20100E-02, 4.729679E-01, 4.934567E-01
-3.19100E-02, 4.718480E-01, 4.902944E-01
-3.18100E-02, 4.746874E-01, 4.922709E-01
-3.17100E-02, 4.718941E-01, 4.897674E-01
-3.16100E-02, 4.714527E-01, 4.937202E-01
-3.15100E-02, 4.695619E-01, 4.941155E-01
-3.14100E-02, 4.694631E-01, 4.893721E-01
-3.13100E-02, 4.730404E-01, 4.914803E-01
-3.12100E-02, 4.741406E-01, 4.920073E-01
-3.11100E-02, 4.742394E-01, 4.920073E-01
-3.10100E-02, 4.758139E-01, 4.963555E-01
-3.09100E-02, 4.743119E-01, 4.943790E-01
-3.08100E-02, 4.661889E-01, 4.855510E-01
-3.07100E-02, 4.725265E-01, 4.959602E-01
-3.06100E-02, 4.793121E-01, 4.997813E-01
-3.05100E-02, 4.705040E-01, 5.001766E-01
-3.04100E-02, 4.694236E-01, 4.925344E-01
-3.03100E-02, 4.732182E-01, 4.891086E-01
-3.02100E-02, 4.753264E-01, 4.943790E-01
-3.01100E-02, 4.720193E-01, 4.926662E-01
-3.00100E-02, 4.700363E-01, 4.937202E-01
-2.99100E-02, 4.779088E-01, 5.012307E-01
-2.98100E-02, 4.766308E-01, 5.025483E-01
-2.97100E-02, 4.822108E-01, 4.945108E-01
-2.96100E-02, 4.749443E-01, 4.931932E-01
-2.95100E-02, 4.806165E-01, 4.943790E-01
-2.94100E-02, 4.789893E-01, 5.014942E-01
-2.93100E-02, 4.769470E-01, 4.963555E-01
-2.92100E-02, 4.815586E-01, 5.062376E-01
-2.91100E-02, 4.731853E-01, 4.978049E-01
-2.90100E-02, 4.753527E-01, 4.949061E-01
-2.89100E-02, 4.695553E-01, 4.901627E-01
-2.88100E-02, 4.741076E-01, 4.960920E-01
-2.87100E-02, 4.707083E-01, 4.954332E-01
-2.86100E-02, 4.699704E-01, 4.924026E-01
-2.85100E-02, 4.737716E-01, 4.922709E-01
-2.84100E-02, 4.740879E-01, 4.933250E-01
-2.83100E-02, 4.765913E-01, 4.930614E-01
-2.82100E-02, 4.727439E-01, 4.955649E-01
-2.81100E-02, 4.742460E-01, 4.933250E-01
-2.80100E-02, 4.727703E-01, 4.929297E-01
-2.79100E-02, 4.745358E-01, 4.988590E-01
-2.78100E-02, 4.780867E-01, 4.946426E-01
-2.77100E-02, 4.679742E-01, 4.926662E-01
-2.76100E-02, 4.760050E-01, 4.925344E-01
-2.75100E-02, 4.790288E-01, 5.037342E-01
-2.74100E-02, 4.698386E-01, 4.924026E-01
-2.73100E-02, 4.753593E-01, 4.941155E-01
-2.72100E-02, 4.743514E-01, 4.930614E-01
-2.71100E-02, 4.753725E-01, 4.955649E-01
-2.70100E-02, 4.737058E-01, 4.920073E-01
-2.69100E-02, 4.743052E-01, 4.942473E-01
-2.68100E-02, 4.758205E-01, 5.005718E-01
-2.67100E-02, 4.754384E-01, 4.941155E-01
-2.66100E-02, 4.719138E-01, 4.985954E-01
-2.65100E-02, 4.731721E-01, 4.926662E-01
-2.64100E-02, 4.734225E-01, 4.922709E-01
-2.63100E-02, 4.785216E-01, 5.018895E-01
-2.62100E-02, 4.708136E-01, 4.902944E-01
-2.61100E-02, 4.780604E-01, 4.938520E-01
-2.60100E-02, 4.748455E-01, 4.953014E-01
-2.59100E-02, 4.718677E-01, 4.881862E-01
-2.58100E-02, 4.720324E-01, 4.908215E-01
-2.57100E-02, 4.821120E-01, 5.047883E-01
-2.56100E-02, 4.807549E-01, 4.987272E-01
-2.55100E-02, 4.755965E-01, 4.959602E-01
-2.54100E-02, 4.791144E-01, 5.013624E-01
-2.53100E-02, 4.793253E-01, 4.980684E-01
-2.52100E-02, 4.802937E-01, 5.016260E-01
-2.51100E-02, 4.780933E-01, 5.010989E-01
-2.50100E-02, 4.762223E-01, 4.951696E-01
-2.49100E-02, 4.667423E-01, 4.856828E-01
-2.48100E-02, 4.704579E-01, 4.883180E-01
-2.47100E-02, 4.716569E-01, 4.870004E-01
-2.46100E-02, 4.659386E-01, 4.879227E-01
-2.45100E-02, 4.716240E-01, 4.931932E-01
-2.44100E-02, 4.714922E-01, 4.900309E-01
-2.43100E-02, 4.705501E-01, 4.941155E-01
-2.42100E-02, 4.770458E-01, 4.987272E-01
-2.41100E-02, 4.744502E-01, 4.927979E-01
-2.40100E-02, 4.735542E-01, 4.972778E-01
-2.39100E-02, 4.742460E-01, 4.898991E-01
-2.38100E-02, 4.720719E-01, 4.867368E-01
-2.37100E-02, 4.691469E-01, 4.921391E-01
-2.36100E-02, 4.702207E-01, 4.884498E-01
-2.35100E-02, 4.745227E-01, 5.000448E-01
-2.34100E-02, 4.687187E-01, 4.910850E-01
-2.33100E-02, 4.730009E-01, 4.937202E-01
-2.32100E-02, 4.733698E-01, 4.906897E-01
-2.31100E-02, 4.720258E-01, 5.000448E-01
-2.30100E-02, 4.700429E-01, 4.875274E-01
-2.29100E-02, 4.751946E-01, 4.968825E-01
-2.28100E-02, 4.752737E-01, 4.914803E-01
-2.27100E-02, 4.771183E-01, 5.012307E-01
-2.26100E-02, 4.768153E-01, 5.004401E-01
-2.25100E-02, 4.704579E-01, 4.912167E-01
-2.24100E-02, 4.741669E-01, 4.982001E-01
-2.23100E-02, 4.746083E-01, 4.951696E-01
-2.22100E-02, 4.721378E-01, 4.942473E-01
-2.21100E-02, 4.729745E-01, 4.914803E-01
-2.20100E-02, 4.794109E-01, 4.950379E-01
-2.19100E-02, 4.690744E-01, 4.863416E-01
-2.18100E-02, 4.676580E-01, 4.921391E-01
-2.17100E-02, 4.761960E-01, 4.956967E-01
-2.16100E-02, 4.765649E-01, 4.905579E-01
-2.15100E-02, 4.739825E-01, 4.968825E-01
-2.14100E-02, 4.756360E-01, 4.978049E-01
-2.13100E-02, 4.725660E-01, 4.967508E-01
-2.12100E-02, 4.820065E-01, 5.036024E-01
-2.11100E-02, 4.750760E-01, 4.929297E-01
-2.10100E-02, 4.680269E-01, 4.885815E-01
-2.09100E-02, 4.740681E-01, 4.935885E-01
-2.08100E-02, 4.731063E-01, 4.909532E-01
-2.07100E-02, 4.732710E-01, 4.976731E-01
-2.06100E-02, 4.684024E-01, 4.888451E-01
-2.05100E-02, 4.699045E-01, 4.945108E-01
-2.04100E-02, 4.725068E-01, 4.893721E-01
-2.03100E-02, 4.630135E-01, 4.842333E-01
-2.02100E-02, 4.704250E-01, 4.881862E-01
-2.01100E-02, 4.727637E-01, 4.949061E-01
-2.00100E-02, 4.732512E-01, 5.020213E-01
-1.99100E-02, 4.730272E-01, 4.993860E-01
-1.98100E-02, 4.761038E-01, 4.980684E-01
-1.97100E-02, 4.792528E-01, 5.022848E-01
-1.96100E-02, 4.752342E-01, 4.938520E-01
-1.95100E-02, 4.768416E-01, 4.945108E-01
-1.94100E-02, 4.729943E-01, 4.938520E-01
-1.93100E-02, 4.764002E-01, 4.929297E-01
-1.92100E-02, 4.767560E-01, 5.007036E-01
-1.91100E-02, 4.744765E-01, 4.966190E-01
-1.90100E-02, 4.711826E-01, 4.913485E-01
-1.89100E-02, 4.712946E-01, 4.908215E-01
-1.88100E-02, 4.764859E-01, 4.976731E-01
-1.87100E-02, 4.722366E-01, 4.924026E-01
-1.86100E-02, 4.758798E-01, 4.947743E-01
-1.85100E-02, 4.753659E-01, 4.964872E-01
-1.84100E-02, 4.723223E-01, 4.929297E-01
-1.83100E-02, 4.779418E-01, 5.014942E-01
-1.82100E-02, 4.728493E-01, 4.970143E-01
-1.81100E-02, 4.742657E-01, 4.900309E-01
-1.80100E-02, 4.797733E-01, 4.929297E-01
-1.79100E-02, 4.729415E-01, 4.921391E-01
-1.78100E-02, 4.724343E-01, 4.917438E-01
-1.77100E-02, 4.713604E-01, 4.908215E-01
-1.76100E-02, 4.718018E-01, 4.945108E-01
-1.75100E-02, 4.681060E-01, 4.924026E-01
-1.74100E-02, 4.717557E-01, 4.946426E-01
-1.73100E-02, 4.731458E-01, 4.967508E-01
-1.72100E-02, 4.710047E-01, 4.956967E-01
-1.71100E-02, 4.769338E-01, 4.943790E-01
-1.70100E-02, 4.650821E-01, 4.847604E-01
-1.69100E-02, 4.755636E-01, 4.983319E-01
-1.68100E-02, 4.710508E-01, 4.926662E-01
-1.67100E-02, 4.741735E-01, 4.921391E-01
-1.66100E-02, 4.773225E-01, 4.988590E-01
-1.65100E-02, 4.750233E-01, 4.893721E-01
-1.64100E-02, 4.766572E-01, 4.972778E-01
-1.63100E-02, 4.723420E-01, 4.873956E-01
-1.62100E-02, 4.759259E-01, 4.939838E-01
-1.61100E-02, 4.772171E-01, 4.995178E-01
-1.60100E-02, 4.731063E-01, 4.962237E-01
-1.59100E-02, 4.715713E-01, 4.881862E-01
-1.58100E-02, 4.745754E-01, 4.954332E-01
-1.57100E-02, 4.733236E-01, 4.914803E-01
-1.56100E-02, 4.812555E-01, 5.017577E-01
-1.55100E-02, 4.740351E-01, 4.949061E-01
-1.54100E-02, 4.705172E-01, 4.910850E-01
-1.53100E-02, 4.702998E-01, 4.921391E-01
-1.52100E-02, 4.733961E-01, 4.908215E-01
-1.51100E-02, 4.701878E-01, 4.950379E-01
-1.50100E-02, 4.708532E-01, 4.914803E-01
-1.49100E-02, 4.689295E-01, 4.889768E-01
-1.48100E-02, 4.767296E-01, 4.987272E-01
-1.47100E-02, 4.692062E-01, 4.904262E-01
-1.46100E-02, 4.773160E-01, 4.993860E-01
-1.45100E-02, 4.795822E-01, 5.004401E-01
-1.44100E-02, 4.733039E-01, 4.926662E-01
-1.43100E-02, 4.741406E-01, 4.920073E-01
-1.42100E-02, 4.748257E-01, 4.938520E-01
-1.41100E-02, 4.787258E-01, 4.993860E-01
-1.40100E-02, 4.727505E-01, 4.926662E-01
-1.39100E-02, 4.645551E-01, 4.895039E-01
-1.38100E-02, 4.719863E-01, 4.970143E-01
-1.37100E-02, 4.764200E-01, 4.988590E-01
-1.36100E-02, 4.774609E-01, 5.005718E-01
-1.35100E-02, 4.722959E-01, 4.926662E-01
-1.34100E-02, 4.729284E-01, 4.856828E-01
-1.33100E-02, 4.720324E-01, 4.896356E-01
-1.32100E-02, 4.612414E-01, 4.851557E-01
-1.31100E-02, 4.683102E-01, 4.914803E-01
-1.30100E-02, 4.658661E-01, 4.879227E-01
-1.29100E-02, 4.783305E-01, 4.970143E-01
-1.28100E-02, 4.753000E-01, 4.916120E-01
-1.27100E-02, 4.766308E-01, 5.022848E-01
-1.26100E-02, 4.751485E-01, 4.935885E-01
-1.25100E-02, 4.733434E-01, 4.931932E-01
-1.24100E-02, 4.729943E-01, 4.953014E-01
-1.23100E-02, 4.649372E-01, 4.850239E-01
-1.22100E-02, 4.802278E-01, 4.996495E-01
-1.21100E-02, 4.781526E-01, 4.958284E-01
-1.20100E-02, 4.741274E-01, 4.980684E-01
-1.19100E-02, 4.712748E-01, 4.895039E-01
-1.18100E-02, 4.693182E-01, 4.897674E-01
-1.17100E-02, 4.760774E-01, 4.958284E-01
-1.16100E-02, 4.721510E-01, 4.926662E-01
-1.15100E-02, 4.760247E-01, 4.954332E-01
-1.14100E-02, 4.784622E-01, 5.000448E-01
-1.13100E-02, 4.752869E-01, 5.022848E-01
-1.12100E-02, 4.814729E-01, 5.016260E-01
-1.11100E-02, 4.749311E-01, 4.951696E-01
-1.10100E-02, 4.722630E-01, 4.945108E-01
-1.09100E-02, 4.733829E-01, 4.953014E-01
-1.08100E-02, 4.746346E-01, 5.024166E-01
-1.07100E-02, 4.694565E-01, 4.908215E-01
-1.06100E-02, 4.761696E-01, 4.934567E-01
-1.05100E-02, 4.745490E-01, 4.938520E-01
-1.04100E-02, 4.751419E-01, 4.954332E-01
-1.03100E-02, 4.776651E-01, 4.968825E-01
-1.02100E-02, 4.783634E-01, 5.024166E-01
-1.01100E-02, 4.755042E-01, 4.930614E-01
-1.00100E-02, 4.734488E-01, 4.943790E-01
-9.9100E-03, 4.637843E-01, 4.837063E-01
-9.8100E-03, 4.718875E-01, 4.949061E-01
-9.7100E-03, 4.803135E-01, 5.020213E-01
-9.6100E-03, 4.742591E-01, 4.963555E-01
-9.5100E-03, 4.789300E-01, 4.945108E-01
-9.4100E-03, 4.769273E-01, 4.974096E-01
-9.3100E-03, 4.745358E-01, 4.939838E-01
-9.2100E-03, 4.653654E-01, 4.818617E-01
-9.1100E-03, 4.703920E-01, 4.916120E-01
-9.0100E-03, 4.702998E-01, 4.942473E-01
-8.9100E-03, 4.701549E-01, 4.884498E-01
-8.8100E-03, 4.688834E-01, 4.847604E-01
-8.7100E-03, 4.675460E-01, 4.838381E-01
-8.6100E-03, 4.724870E-01, 4.914803E-01
-8.5100E-03, 4.722235E-01, 4.896356E-01
-8.4100E-03, 4.683366E-01, 4.833110E-01
-8.3100E-03, 4.760313E-01, 4.983319E-01
-8.2100E-03, 4.740351E-01, 4.921391E-01
-8.1100E-03, 4.774148E-01, 4.975413E-01
-8.0100E-03, 4.750892E-01, 4.950379E-01
-7.9100E-03, 4.775202E-01, 4.995178E-01
-7.8100E-03, 4.752407E-01, 4.972778E-01
-7.7100E-03, 4.822964E-01, 5.043930E-01
-7.6100E-03, 4.727637E-01, 4.910850E-01
-7.5100E-03, 4.696015E-01, 4.904262E-01
-7.4100E-03, 4.758600E-01, 4.979366E-01
-7.3100E-03, 4.761433E-01, 4.995178E-01
-7.2100E-03, 4.772764E-01, 4.950379E-01
-7.1100E-03, 4.751485E-01, 4.966190E-01
-7.0100E-03, 4.722037E-01, 4.914803E-01
-6.9100E-03, 4.714131E-01, 4.902944E-01
-6.8100E-03, 4.701417E-01, 4.917438E-01
-6.7100E-03, 4.718084E-01, 4.922709E-01
-6.6100E-03, 4.765583E-01, 4.971461E-01
-6.5100E-03, 4.721839E-01, 4.942473E-01
-6.4100E-03, 4.753593E-01, 4.978049E-01
-6.3100E-03, 4.758666E-01, 4.999131E-01
-6.2100E-03, 4.813083E-01, 4.980684E-01
-6.1100E-03, 4.725265E-01, 4.933250E-01
-6.0100E-03, 4.677700E-01, 4.888451E-01
-5.9100E-03, 4.635537E-01, 4.842333E-01
-5.8100E-03, 4.750431E-01, 4.982001E-01
-5.7100E-03, 4.694038E-01, 4.872639E-01
-5.6100E-03, 4.712748E-01, 4.868686E-01
-5.5100E-03, 4.683366E-01, 4.872639E-01
-5.4100E-03, 4.788839E-01, 5.025483E-01
-5.3100E-03, 4.786731E-01, 4.966190E-01
-5.2100E-03, 4.706753E-01, 4.912167E-01
-5.1100E-03, 4.772962E-01, 4.956967E-01
-5.0100E-03, 4.725068E-01, 4.942473E-01
-4.9100E-03, 4.691074E-01, 4.925344E-01
-4.8100E-03, 4.684354E-01, 4.925344E-01
-4.7100E-03, 4.725199E-01, 4.906897E-01
-4.6100E-03, 4.768877E-01, 4.966190E-01
-4.5100E-03, 4.704118E-01, 4.905579E-01
-4.4100E-03, 4.719863E-01, 4.970143E-01
-4.3100E-03, 4.773489E-01, 4.997813E-01
-4.2100E-03, 4.776190E-01, 4.976731E-01
-4.1100E-03, 4.745227E-01, 4.933250E-01
-4.0100E-03, 4.643904E-01, 4.860780E-01
-3.9100E-03, 4.752473E-01, 4.995178E-01
-3.8100E-03, 4.790091E-01, 4.972778E-01
-3.7100E-03, 4.721180E-01, 4.931932E-01
-3.6100E-03, 4.717887E-01, 4.872639E-01
-3.5100E-03, 4.770590E-01, 4.984637E-01
-3.4100E-03, 4.770920E-01, 4.972778E-01
-3.3100E-03, 4.701614E-01, 4.893721E-01
-3.2100E-03, 4.793450E-01, 4.933250E-01
-3.1100E-03, 4.855114E-01, 5.080823E-01
-3.0100E-03, 4.774609E-01, 4.962237E-01
-2.9100E-03, 4.763871E-01, 4.991225E-01
-2.8100E-03, 4.690481E-01, 4.897674E-01
-2.7100E-03, 4.706621E-01, 4.971461E-01
-2.6100E-03, 4.698913E-01, 4.991225E-01
-2.5100E-03, 4.700033E-01, 4.904262E-01
-2.4100E-03, 4.792330E-01, 4.963555E-01
-2.3100E-03, 4.758402E-01, 4.934567E-01
-2.2100E-03, 4.778298E-01, 4.982001E-01
-2.1100E-03, 4.718941E-01, 4.959602E-01
-2.0100E-03, 4.728361E-01, 4.930614E-01
-1.9100E-03, 4.680599E-01, 4.870004E-01
-1.8100E-03, 4.685342E-01, 4.902944E-01
-1.7100E-03, 4.656882E-01, 4.892403E-01
-1.6100E-03, 4.603059E-01, 4.814664E-01
-1.5100E-03, 4.706819E-01, 4.939838E-01
-1.4100E-03, 4.717689E-01, 4.896356E-01
-1.3100E-03, 4.785545E-01, 5.014942E-01
-1.2100E-03, 4.823030E-01, 5.028118E-01
-1.1100E-03, 4.799116E-01, 4.950379E-01
-1.0100E-03, 4.803464E-01, 4.967508E-01
-9.100E-04, 4.741274E-01, 4.863416E-01
-8.100E-04, 4.790222E-01, 5.018895E-01
-7.100E-04, 4.755438E-01, 5.005718E-01
-6.100E-04, 4.748191E-01, 4.967508E-01
-5.100E-04, 4.728032E-01, 4.872639E-01
-4.100E-04, 4.705435E-01, 4.863416E-01
-3.100E-04, 4.753791E-01, 4.972778E-01
-2.100E-04, 4.715844E-01, 4.942473E-01
-1.100E-04, 4.708861E-01, 4.895039E-01
-1.00E-05, 4.903667E-01, 2.1062260E+00
9.00E-05, 4.845429E-01, 4.7170939E+00
1.900E-04, 4.881795E-01, 4.7163033E+00
2.900E-04, 4.758732E-01, 4.7193341E+00
3.900E-04, 4.723948E-01, 4.7198610E+00
4.900E-04, 4.821383E-01, 4.7260537E+00
5.900E-04, 4.878896E-01, 4.7178845E+00
6.900E-04, 4.816310E-01, 4.7207832E+00
7.900E-04, 4.863546E-01, 4.7174892E+00
8.900E-04, 4.901097E-01, 4.7267127E+00
9.900E-04, 4.775729E-01, 4.7211785E+00
1.0900E-03, 4.662943E-01, 4.7282939E+00
1.1900E-03, 4.803398E-01, 4.7243409E+00
1.2900E-03, 4.732314E-01, 4.7223644E+00
1.3900E-03, 4.848328E-01, 4.7261853E+00
1.4900E-03, 4.781197E-01, 4.7210469E+00
1.5900E-03, 4.791276E-01, 4.7192020E+00
1.6900E-03, 4.758930E-01, 4.7170939E+00
1.7900E-03, 4.879884E-01, 4.7193341E+00
1.8900E-03, 4.846747E-01, 4.7231550E+00
1.9900E-03, 4.735279E-01, 4.7218375E+00
2.0900E-03, 4.784622E-01, 4.7184114E+00
2.1900E-03, 4.760840E-01, 4.7222328E+00
2.2900E-03, 4.805902E-01, 4.7276349E+00
2.3900E-03, 4.817826E-01, 4.7211785E+00
2.4900E-03, 4.765320E-01, 4.7177529E+00
2.5900E-03, 4.717162E-01, 4.7238140E+00
2.6900E-03, 4.822174E-01, 4.7260537E+00
2.7900E-03, 4.989903E-01, 4.7165670E+00
2.8900E-03, 4.899253E-01, 4.7267127E+00
2.9900E-03, 4.885616E-01, 4.7177529E+00
3.0900E-03, 4.795756E-01, 4.7275033E+00
3.1900E-03, 4.831858E-01, 4.7190704E+00
3.2900E-03, 4.886011E-01, 4.7257900E+00
3.3900E-03, 4.775070E-01, 4.7166986E+00
3.4900E-03, 4.771447E-01, 4.7264490E+00
3.5900E-03, 4.842465E-01, 4.7280302E+00
3.6900E-03, 4.854455E-01, 4.7173576E+00
3.7900E-03, 4.764134E-01, 4.7206516E+00
3.8900E-03, 4.849645E-01, 4.7193341E+00
3.9900E-03, 4.711892E-01, 4.7248678E+00
4.0900E-03, 4.719929E-01, 4.7153811E+00
4.1900E-03, 4.773093E-01, 4.7268443E+00
4.2900E-03, 4.824282E-01, 4.7205195E+00
4.3900E-03, 4.804650E-01, 4.7184114E+00
4.4900E-03, 4.849448E-01, 4.7224960E+00
4.5900E-03, 4.834032E-01, 4.7197294E+00
4.6900E-03, 4.839302E-01, 4.7247362E+00
4.7900E-03, 4.878764E-01, 4.7256584E+00
4.8900E-03, 4.780011E-01, 4.7168303E+00
4.9900E-03, 4.659188E-01, 4.7231550E+00
5.0900E-03, 4.808273E-01, 4.7217054E+00
5.1900E-03, 4.954394E-01, 4.7217054E+00
5.2900E-03, 4.837919E-01, 4.7243409E+00
5.3900E-03, 4.997808E-01, 4.7210469E+00
5.4900E-03, 4.990430E-01, 4.7182798E+00
5.5900E-03, 4.922376E-01, 4.7230234E+00
5.6900E-03, 4.916184E-01, 4.7214422E+00
5.7900E-03, 4.932851E-01, 4.7180161E+00
5.8900E-03, 4.906434E-01, 4.7139316E+00
5.9900E-03, 4.946686E-01, 4.7219691E+00
6.0900E-03, 4.917040E-01, 4.7242093E+00
6.1900E-03, 4.915393E-01, 4.7238140E+00
6.2900E-03, 4.855245E-01, 4.7227597E+00
6.3900E-03, 4.943392E-01, 4.7192020E+00
6.4900E-03, 4.938253E-01, 4.7219691E+00
6.5900E-03, 4.871254E-01, 4.7242093E+00
6.6900E-03, 4.998138E-01, 4.7203879E+00
6.7900E-03, 4.933181E-01, 4.7221007E+00
6.8900E-03, 4.973565E-01, 4.7184114E+00
6.9900E-03, 4.852544E-01, 4.7190704E+00
7.0900E-03, 4.934630E-01, 4.7211785E+00
7.1900E-03, 4.913153E-01, 4.7180161E+00
7.2900E-03, 4.892599E-01, 4.7249999E+00
7.3900E-03, 4.841411E-01, 4.7203879E+00
7.4900E-03, 4.919346E-01, 4.7249999E+00
7.5900E-03, 4.894905E-01, 4.7221007E+00
7.6900E-03, 4.963090E-01, 4.7273712E+00
7.7900E-03, 4.970600E-01, 4.7260537E+00
7.8900E-03, 4.946159E-01, 4.7265806E+00
7.9900E-03, 4.938319E-01, 4.7265806E+00
8.0900E-03, 4.923562E-01, 4.7252631E+00
8.1900E-03, 4.909267E-01, 4.7251315E+00
8.2900E-03, 4.962563E-01, 4.7189388E+00
8.3900E-03, 4.977781E-01, 4.7268443E+00
8.4900E-03, 4.987070E-01, 4.7271080E+00
8.5900E-03, 5.012565E-01, 4.7226281E+00
8.6900E-03, 5.006900E-01, 4.7247362E+00
8.7900E-03, 4.926724E-01, 4.7247362E+00
8.8900E-03, 4.934432E-01, 4.7174892E+00
8.9900E-03, 4.957622E-01, 4.7221007E+00
9.0900E-03, 5.040959E-01, 4.7238140E+00
9.1900E-03, 4.933971E-01, 4.7214422E+00
9.2900E-03, 4.980153E-01, 4.7247362E+00
9.3900E-03, 4.905643E-01, 4.7193341E+00
9.4900E-03, 4.962497E-01, 4.7182798E+00
9.5900E-03, 4.844507E-01, 4.7189388E+00
9.6900E-03, 4.865325E-01, 4.7181482E+00
9.7900E-03, 4.805111E-01, 4.7193341E+00
9.8900E-03, 4.845890E-01, 4.7140636E+00
9.9900E-03, 4.937792E-01, 4.7163033E+00
