mesure-order8-5-10-18/Order8average50total03unknown.csv

,Channel 1,Channel 2
Revision:           ,0,0
Type:               ,average,average
Start:              ,0,0
Points:             ,71000,71000
Count:              ,50,50
XDispRange:         ,7.10000E+00,7.10000E+00
XDispOrg:           ,-3.67099999999998E-02,-3.67099999999998E-02
XInc:               ,1.00000000000000E-04,1.00000000000000E-04
XOrg:               ,-3.66100000000001E-02,-3.66100000000001E-02
Units:              ,Second,Second
XReference:         ,4,4
YDispRange:         ,4.00000E-01,8.00000E+00
YDispOrg:           ,5.87999999523163E-01,2.35999989509583E+00
YInc:               ,6.587944310779E-06,1.31762197229732E-04
YOrg:               ,5.94640647865265E-01,2.49281629480757E+00
Units:              ,Volt,Volt
YReference:         ,1,1
Frame:              ,DSOS104A:MY55510295,DSOS104A:MY55510295
Date:               ,10 MAY 2018,10 MAY 2018
Time:               ,18:15:25,18:15:25
Max Bandwidth:      ,5000,5000
Min Bandwidth:      ,0,0
Time Tags (Channel 1),Channel 1,Channel 2
-3.67100E-02, 4.856299E-01, 5.054471E-01
-3.66100E-02, 4.818353E-01, 5.036024E-01
-3.65100E-02, 4.845297E-01, 5.010989E-01
-3.64100E-02, 4.849053E-01, 5.074235E-01
-3.63100E-02, 4.825929E-01, 5.012307E-01
-3.62100E-02, 4.791540E-01, 4.997813E-01
-3.61100E-02, 4.834954E-01, 5.014942E-01
-3.60100E-02, 4.789102E-01, 4.968825E-01
-3.59100E-02, 4.822174E-01, 5.083458E-01
-3.58100E-02, 4.806758E-01, 4.997813E-01
-3.57100E-02, 4.841015E-01, 5.032071E-01
-3.56100E-02, 4.926659E-01, 5.091364E-01
-3.55100E-02, 4.895959E-01, 5.095317E-01
-3.54100E-02, 4.853862E-01, 5.065012E-01
-3.53100E-02, 4.854652E-01, 5.071600E-01
-3.52100E-02, 4.809327E-01, 5.045248E-01
-3.51100E-02, 4.784491E-01, 4.971461E-01
-3.50100E-02, 4.761103E-01, 4.992543E-01
-3.49100E-02, 4.781724E-01, 4.962237E-01
-3.48100E-02, 4.803003E-01, 5.026801E-01
-3.47100E-02, 4.826785E-01, 5.010989E-01
-3.46100E-02, 4.807680E-01, 5.013624E-01
-3.45100E-02, 4.804320E-01, 4.995178E-01
-3.44100E-02, 4.870859E-01, 5.080823E-01
-3.43100E-02, 4.793319E-01, 4.959602E-01
-3.42100E-02, 4.823755E-01, 5.088729E-01
-3.41100E-02, 4.788971E-01, 5.032071E-01
-3.40100E-02, 4.800038E-01, 4.989907E-01
-3.39100E-02, 4.842728E-01, 5.079505E-01
-3.38100E-02, 4.831726E-01, 4.974096E-01
-3.37100E-02, 4.853203E-01, 5.079505E-01
-3.36100E-02, 4.869739E-01, 5.034707E-01
-3.35100E-02, 4.843255E-01, 5.075552E-01
-3.34100E-02, 4.779747E-01, 4.954332E-01
-3.33100E-02, 4.761235E-01, 4.959602E-01
-3.32100E-02, 4.786599E-01, 4.960920E-01
-3.31100E-02, 4.756821E-01, 4.975413E-01
-3.30100E-02, 4.859330E-01, 5.013624E-01
-3.29100E-02, 4.867565E-01, 5.101905E-01
-3.28100E-02, 4.942206E-01, 5.150657E-01
-3.27100E-02, 4.880345E-01, 5.041295E-01
-3.26100E-02, 4.846945E-01, 5.065012E-01
-3.25100E-02, 4.956700E-01, 5.097952E-01
-3.24100E-02, 4.865588E-01, 5.113764E-01
-3.23100E-02, 4.837129E-01, 5.034707E-01
-3.22100E-02, 4.799182E-01, 4.979366E-01
-3.21100E-02, 4.875997E-01, 5.087411E-01
-3.20100E-02, 4.857485E-01, 5.062376E-01
-3.19100E-02, 4.816508E-01, 4.991225E-01
-3.18100E-02, 4.800302E-01, 4.963555E-01
-3.17100E-02, 4.808273E-01, 5.026801E-01
-3.16100E-02, 4.797337E-01, 5.050518E-01
-3.15100E-02, 4.794241E-01, 4.975413E-01
-3.14100E-02, 4.749114E-01, 4.909532E-01
-3.13100E-02, 4.863744E-01, 5.059741E-01
-3.12100E-02, 4.867367E-01, 5.021530E-01
-3.11100E-02, 4.845100E-01, 5.058424E-01
-3.10100E-02, 4.815322E-01, 5.004401E-01
-3.09100E-02, 4.821317E-01, 4.983319E-01
-3.08100E-02, 4.797205E-01, 5.021530E-01
-3.07100E-02, 4.826785E-01, 5.017577E-01
-3.06100E-02, 4.801488E-01, 5.033389E-01
-3.05100E-02, 4.764200E-01, 4.968825E-01
-3.04100E-02, 4.830804E-01, 4.995178E-01
-3.03100E-02, 4.800038E-01, 5.008354E-01
-3.02100E-02, 4.828235E-01, 4.962237E-01
-3.01100E-02, 4.850041E-01, 5.026801E-01
-3.00100E-02, 4.799577E-01, 4.987272E-01
-2.99100E-02, 4.895168E-01, 5.071600E-01
-2.98100E-02, 4.834032E-01, 5.005718E-01
-2.97100E-02, 4.847274E-01, 5.086094E-01
-2.96100E-02, 4.862162E-01, 5.036024E-01
-2.95100E-02, 4.833703E-01, 5.037342E-01
-2.94100E-02, 4.829025E-01, 5.005718E-01
-2.93100E-02, 4.814466E-01, 4.976731E-01
-2.92100E-02, 4.833241E-01, 5.043930E-01
-2.91100E-02, 4.822305E-01, 5.005718E-01
-2.90100E-02, 4.856958E-01, 5.059741E-01
-2.89100E-02, 4.788246E-01, 5.010989E-01
-2.88100E-02, 4.830343E-01, 4.963555E-01
-2.87100E-02, 4.783173E-01, 4.995178E-01
-2.86100E-02, 4.807614E-01, 5.037342E-01
-2.85100E-02, 4.884232E-01, 5.111129E-01
-2.84100E-02, 4.897606E-01, 5.119034E-01
-2.83100E-02, 4.867828E-01, 5.016260E-01
-2.82100E-02, 4.831660E-01, 5.080823E-01
-2.81100E-02, 4.827642E-01, 5.043930E-01
-2.80100E-02, 4.830211E-01, 5.034707E-01
-2.79100E-02, 4.800038E-01, 4.983319E-01
-2.78100E-02, 4.811238E-01, 5.070282E-01
-2.77100E-02, 4.799050E-01, 5.049200E-01
-2.76100E-02, 4.846747E-01, 5.005718E-01
-2.75100E-02, 4.805638E-01, 5.004401E-01
-2.74100E-02, 4.811106E-01, 5.066329E-01
-2.73100E-02, 4.837524E-01, 5.057106E-01
-2.72100E-02, 4.789234E-01, 5.007036E-01
-2.71100E-02, 4.822503E-01, 5.050518E-01
-2.70100E-02, 4.757348E-01, 4.972778E-01
-2.69100E-02, 4.851820E-01, 5.072917E-01
-2.68100E-02, 4.885747E-01, 5.083458E-01
-2.67100E-02, 4.849316E-01, 5.088729E-01
-2.66100E-02, 4.898923E-01, 5.115081E-01
-2.65100E-02, 4.933708E-01, 5.109811E-01
-2.64100E-02, 4.844244E-01, 4.989907E-01
-2.63100E-02, 4.818419E-01, 5.054471E-01
-2.62100E-02, 4.801158E-01, 4.947743E-01
-2.61100E-02, 4.835284E-01, 5.108493E-01
-2.60100E-02, 4.803662E-01, 5.043930E-01
-2.59100E-02, 4.842201E-01, 5.057106E-01
-2.58100E-02, 4.801092E-01, 5.024166E-01
-2.57100E-02, 4.860647E-01, 5.082141E-01
-2.56100E-02, 4.797996E-01, 4.967508E-01
-2.55100E-02, 4.864798E-01, 5.043930E-01
-2.54100E-02, 4.936145E-01, 5.101905E-01
-2.53100E-02, 4.856695E-01, 5.053153E-01
-2.52100E-02, 4.884166E-01, 5.037342E-01
-2.51100E-02, 4.866313E-01, 5.043930E-01
-2.50100E-02, 4.842728E-01, 4.978049E-01
-2.49100E-02, 4.922706E-01, 5.078188E-01
-2.48100E-02, 4.890227E-01, 5.104541E-01
-2.47100E-02, 4.838380E-01, 4.999131E-01
-2.46100E-02, 4.837326E-01, 5.072917E-01
-2.45100E-02, 4.846549E-01, 5.088729E-01
-2.44100E-02, 4.849382E-01, 5.034707E-01
-2.43100E-02, 4.780867E-01, 4.971461E-01
-2.42100E-02, 4.814993E-01, 5.054471E-01
-2.41100E-02, 4.840027E-01, 5.036024E-01
-2.40100E-02, 4.792330E-01, 4.963555E-01
-2.39100E-02, 4.797930E-01, 5.010989E-01
-2.38100E-02, 4.800895E-01, 5.012307E-01
-2.37100E-02, 4.790091E-01, 4.970143E-01
-2.36100E-02, 4.822899E-01, 5.025483E-01
-2.35100E-02, 4.818550E-01, 5.050518E-01
-2.34100E-02, 4.814664E-01, 4.979366E-01
-2.33100E-02, 4.850436E-01, 5.050518E-01
-2.32100E-02, 4.833834E-01, 5.062376E-01
-2.31100E-02, 4.831133E-01, 4.958284E-01
-2.30100E-02, 4.826719E-01, 5.013624E-01
-2.29100E-02, 4.824084E-01, 5.022848E-01
-2.28100E-02, 4.825007E-01, 5.008354E-01
-2.27100E-02, 4.803859E-01, 4.983319E-01
-2.26100E-02, 4.851688E-01, 5.063694E-01
-2.25100E-02, 4.894641E-01, 5.105858E-01
-2.24100E-02, 4.845825E-01, 5.030754E-01
-2.23100E-02, 4.848526E-01, 5.063694E-01
-2.22100E-02, 4.841279E-01, 5.053153E-01
-2.21100E-02, 4.861043E-01, 5.094000E-01
-2.20100E-02, 4.850304E-01, 5.059741E-01
-2.19100E-02, 4.803991E-01, 4.983319E-01
-2.18100E-02, 4.770524E-01, 5.022848E-01
-2.17100E-02, 4.854389E-01, 5.068964E-01
-2.16100E-02, 4.830540E-01, 5.061059E-01
-2.15100E-02, 4.824611E-01, 5.016260E-01
-2.14100E-02, 4.864995E-01, 5.071600E-01
-2.13100E-02, 4.896288E-01, 5.136163E-01
-2.12100E-02, 4.886143E-01, 5.079505E-01
-2.11100E-02, 4.888778E-01, 5.053153E-01
-2.10100E-02, 4.794241E-01, 4.982001E-01
-2.09100E-02, 4.845495E-01, 5.030754E-01
-2.08100E-02, 4.762751E-01, 4.947743E-01
-2.07100E-02, 4.802147E-01, 5.012307E-01
-2.06100E-02, 4.798457E-01, 5.009671E-01
-2.05100E-02, 4.871913E-01, 5.039977E-01
-2.04100E-02, 4.771051E-01, 4.880545E-01
-2.03100E-02, 4.776190E-01, 4.967508E-01
-2.02100E-02, 4.814598E-01, 5.080823E-01
-2.01100E-02, 4.764727E-01, 4.968825E-01
-2.00100E-02, 4.818155E-01, 4.989907E-01
-1.99100E-02, 4.788971E-01, 5.051836E-01
-1.98100E-02, 4.821317E-01, 5.038660E-01
-1.97100E-02, 4.857156E-01, 5.079505E-01
-1.96100E-02, 4.833373E-01, 5.036024E-01
-1.95100E-02, 4.898330E-01, 5.074235E-01
-1.94100E-02, 4.900702E-01, 5.076870E-01
-1.93100E-02, 4.864139E-01, 5.067647E-01
-1.92100E-02, 4.790156E-01, 4.978049E-01
-1.91100E-02, 4.781658E-01, 4.987272E-01
-1.90100E-02, 4.863019E-01, 5.103223E-01
-1.89100E-02, 4.793384E-01, 5.008354E-01
-1.88100E-02, 4.851029E-01, 5.076870E-01
-1.87100E-02, 4.839566E-01, 5.080823E-01
-1.86100E-02, 4.887328E-01, 5.007036E-01
-1.85100E-02, 4.860186E-01, 5.065012E-01
-1.84100E-02, 4.898660E-01, 5.082141E-01
-1.83100E-02, 4.875207E-01, 5.095317E-01
-1.82100E-02, 4.812621E-01, 5.020213E-01
-1.81100E-02, 4.879687E-01, 5.003083E-01
-1.80100E-02, 4.849382E-01, 5.008354E-01
-1.79100E-02, 4.823689E-01, 5.022848E-01
-1.78100E-02, 4.903667E-01, 5.028118E-01
-1.77100E-02, 4.871517E-01, 5.034707E-01
-1.76100E-02, 4.807746E-01, 4.987272E-01
-1.75100E-02, 4.770392E-01, 4.956967E-01
-1.74100E-02, 4.795558E-01, 4.999131E-01
-1.73100E-02, 4.786731E-01, 4.964872E-01
-1.72100E-02, 4.769536E-01, 4.910850E-01
-1.71100E-02, 4.825665E-01, 5.004401E-01
-1.70100E-02, 4.789300E-01, 4.979366E-01
-1.69100E-02, 4.793384E-01, 5.005718E-01
-1.68100E-02, 4.821647E-01, 5.026801E-01
-1.67100E-02, 4.858210E-01, 5.014942E-01
-1.66100E-02, 4.832780E-01, 5.061059E-01
-1.65100E-02, 4.819209E-01, 4.974096E-01
-1.64100E-02, 4.813544E-01, 4.984637E-01
-1.63100E-02, 4.827774E-01, 5.054471E-01
-1.62100E-02, 4.815915E-01, 4.975413E-01
-1.61100E-02, 4.797601E-01, 4.930614E-01
-1.60100E-02, 4.832121E-01, 5.022848E-01
-1.59100E-02, 4.842860E-01, 5.033389E-01
-1.58100E-02, 4.820659E-01, 5.020213E-01
-1.57100E-02, 4.848328E-01, 5.041295E-01
-1.56100E-02, 4.805243E-01, 4.978049E-01
-1.55100E-02, 4.849580E-01, 5.022848E-01
-1.54100E-02, 4.874943E-01, 5.096635E-01
-1.53100E-02, 4.862426E-01, 5.094000E-01
-1.52100E-02, 4.851358E-01, 5.084776E-01
-1.51100E-02, 4.845956E-01, 5.087411E-01
-1.50100E-02, 4.839236E-01, 5.038660E-01
-1.49100E-02, 4.829025E-01, 5.065012E-01
-1.48100E-02, 4.743448E-01, 4.924026E-01
-1.47100E-02, 4.814598E-01, 4.970143E-01
-1.46100E-02, 4.855377E-01, 5.057106E-01
-1.45100E-02, 4.813675E-01, 5.010989E-01
-1.44100E-02, 4.833307E-01, 4.997813E-01
-1.43100E-02, 4.863414E-01, 5.028118E-01
-1.42100E-02, 4.885155E-01, 5.088729E-01
-1.41100E-02, 4.858012E-01, 5.063694E-01
-1.40100E-02, 4.743119E-01, 4.926662E-01
-1.39100E-02, 4.808339E-01, 5.010989E-01
-1.38100E-02, 4.851885E-01, 5.104541E-01
-1.37100E-02, 4.796349E-01, 5.001766E-01
-1.36100E-02, 4.828564E-01, 5.017577E-01
-1.35100E-02, 4.839698E-01, 5.046565E-01
-1.34100E-02, 4.857749E-01, 5.103223E-01
-1.33100E-02, 4.776256E-01, 4.913485E-01
-1.32100E-02, 4.751485E-01, 4.955649E-01
-1.31100E-02, 4.852149E-01, 5.115081E-01
-1.30100E-02, 4.913483E-01, 5.104541E-01
-1.29100E-02, 4.844507E-01, 5.059741E-01
-1.28100E-02, 4.858539E-01, 5.030754E-01
-1.27100E-02, 4.816838E-01, 5.043930E-01
-1.26100E-02, 4.807746E-01, 5.028118E-01
-1.25100E-02, 4.807878E-01, 5.034707E-01
-1.24100E-02, 4.833703E-01, 4.993860E-01
-1.23100E-02, 4.866247E-01, 5.059741E-01
-1.22100E-02, 4.839236E-01, 5.001766E-01
-1.21100E-02, 4.808076E-01, 5.024166E-01
-1.20100E-02, 4.809591E-01, 5.025483E-01
-1.19100E-02, 4.865720E-01, 5.061059E-01
-1.18100E-02, 4.832188E-01, 5.036024E-01
-1.17100E-02, 4.828037E-01, 5.004401E-01
-1.16100E-02, 4.817562E-01, 5.033389E-01
-1.15100E-02, 4.850568E-01, 5.000448E-01
-1.14100E-02, 4.801619E-01, 4.970143E-01
-1.13100E-02, 4.845231E-01, 4.997813E-01
-1.12100E-02, 4.875338E-01, 5.041295E-01
-1.11100E-02, 4.906565E-01, 5.032071E-01
-1.10100E-02, 4.869212E-01, 5.076870E-01
-1.09100E-02, 4.792199E-01, 4.937202E-01
-1.08100E-02, 4.851951E-01, 5.007036E-01
-1.07100E-02, 4.904391E-01, 5.107176E-01
-1.06100E-02, 4.799775E-01, 4.963555E-01
-1.05100E-02, 4.789300E-01, 4.979366E-01
-1.04100E-02, 4.815059E-01, 4.954332E-01
-1.03100E-02, 4.819341E-01, 5.026801E-01
-1.02100E-02, 4.795493E-01, 5.013624E-01
-1.01100E-02, 4.839698E-01, 5.021530E-01
-1.00100E-02, 4.857880E-01, 5.016260E-01
-9.9100E-03, 4.788378E-01, 4.975413E-01
-9.8100E-03, 4.808010E-01, 4.959602E-01
-9.7100E-03, 4.850107E-01, 5.058424E-01
-9.6100E-03, 4.813675E-01, 5.016260E-01
-9.5100E-03, 4.819802E-01, 5.029436E-01
-9.4100E-03, 4.800038E-01, 4.962237E-01
-9.3100E-03, 4.848196E-01, 5.039977E-01
-9.2100E-03, 4.863876E-01, 5.032071E-01
-9.1100E-03, 4.854521E-01, 5.122987E-01
-9.0100E-03, 4.920795E-01, 5.103223E-01
-8.9100E-03, 4.843980E-01, 5.078188E-01
-8.8100E-03, 4.868553E-01, 5.054471E-01
-8.7100E-03, 4.780011E-01, 4.983319E-01
-8.6100E-03, 4.788905E-01, 5.010989E-01
-8.5100E-03, 4.771447E-01, 4.967508E-01
-8.4100E-03, 4.785677E-01, 4.972778E-01
-8.3100E-03, 4.840422E-01, 5.049200E-01
-8.2100E-03, 4.880543E-01, 5.037342E-01
-8.1100E-03, 4.895893E-01, 5.094000E-01
-8.0100E-03, 4.737782E-01, 4.962237E-01
-7.9100E-03, 4.781658E-01, 5.032071E-01
-7.8100E-03, 4.789168E-01, 5.029436E-01
-7.7100E-03, 4.726846E-01, 4.970143E-01
-7.6100E-03, 4.808405E-01, 4.997813E-01
-7.5100E-03, 4.842333E-01, 5.088729E-01
-7.4100E-03, 4.792001E-01, 4.995178E-01
-7.3100E-03, 4.827708E-01, 4.976731E-01
-7.2100E-03, 4.831133E-01, 5.050518E-01
-7.1100E-03, 4.796019E-01, 4.926662E-01
-7.0100E-03, 4.872637E-01, 5.010989E-01
-6.9100E-03, 4.825402E-01, 5.026801E-01
-6.8100E-03, 4.803069E-01, 5.021530E-01
-6.7100E-03, 4.838578E-01, 5.020213E-01
-6.6100E-03, 4.834625E-01, 5.021530E-01
-6.5100E-03, 4.847867E-01, 5.005718E-01
-6.4100E-03, 4.883046E-01, 5.083458E-01
-6.3100E-03, 4.873362E-01, 5.045248E-01
-6.2100E-03, 4.815125E-01, 5.046565E-01
-6.1100E-03, 4.780538E-01, 4.979366E-01
-6.0100E-03, 4.856761E-01, 5.088729E-01
-5.9100E-03, 4.907488E-01, 5.076870E-01
-5.8100E-03, 4.837392E-01, 4.966190E-01
-5.7100E-03, 4.818221E-01, 5.039977E-01
-5.6100E-03, 4.793516E-01, 4.983319E-01
-5.5100E-03, 4.787521E-01, 5.034707E-01
-5.4100E-03, 4.835218E-01, 5.049200E-01
-5.3100E-03, 4.923233E-01, 5.117717E-01
-5.2100E-03, 4.867565E-01, 5.066329E-01
-5.1100E-03, 4.861833E-01, 5.076870E-01
-5.0100E-03, 4.828630E-01, 5.076870E-01
-4.9100E-03, 4.778957E-01, 4.945108E-01
-4.8100E-03, 4.837853E-01, 5.083458E-01
-4.7100E-03, 4.824414E-01, 4.964872E-01
-4.6100E-03, 4.874416E-01, 5.099270E-01
-4.5100E-03, 4.845429E-01, 5.057106E-01
-4.4100E-03, 4.853598E-01, 5.078188E-01
-4.3100E-03, 4.857156E-01, 5.028118E-01
-4.2100E-03, 4.903996E-01, 5.103223E-01
-4.1100E-03, 4.884562E-01, 5.046565E-01
-4.0100E-03, 4.787126E-01, 4.983319E-01
-3.9100E-03, 4.866511E-01, 5.068964E-01
-3.8100E-03, 4.820065E-01, 5.047883E-01
-3.7100E-03, 4.789959E-01, 4.955649E-01
-3.6100E-03, 4.906829E-01, 5.076870E-01
-3.5100E-03, 4.863810E-01, 5.030754E-01
-3.4100E-03, 4.861899E-01, 5.009671E-01
-3.3100E-03, 4.794307E-01, 4.946426E-01
-3.2100E-03, 4.859066E-01, 4.980684E-01
-3.1100E-03, 4.808800E-01, 5.080823E-01
-3.0100E-03, 4.816772E-01, 5.014942E-01
-2.9100E-03, 4.781856E-01, 5.021530E-01
-2.8100E-03, 4.736992E-01, 4.983319E-01
-2.7100E-03, 4.802871E-01, 4.978049E-01
-2.6100E-03, 4.812028E-01, 5.003083E-01
-2.5100E-03, 4.839764E-01, 4.953014E-01
-2.4100E-03, 4.877051E-01, 5.119034E-01
-2.3100E-03, 4.815059E-01, 4.942473E-01
-2.2100E-03, 4.827049E-01, 5.054471E-01
-2.1100E-03, 4.832583E-01, 5.084776E-01
-2.0100E-03, 4.861438E-01, 5.057106E-01
-1.9100E-03, 4.872110E-01, 5.022848E-01
-1.8100E-03, 4.867499E-01, 5.116399E-01
-1.7100E-03, 4.894773E-01, 5.053153E-01
-1.6100E-03, 4.833110E-01, 5.061059E-01
-1.5100E-03, 4.839434E-01, 5.054471E-01
-1.4100E-03, 4.812819E-01, 4.956967E-01
-1.3100E-03, 4.829091E-01, 5.046565E-01
-1.2100E-03, 4.802739E-01, 5.017577E-01
-1.1100E-03, 4.867960E-01, 5.053153E-01
-1.0100E-03, 4.732051E-01, 5.016260E-01
-9.100E-04, 4.749443E-01, 4.996495E-01
-8.100E-04, 4.848526E-01, 5.051836E-01
-7.100E-04, 4.833505E-01, 5.026801E-01
-6.100E-04, 4.788246E-01, 4.968825E-01
-5.100E-04, 4.875668E-01, 5.070282E-01
-4.100E-04, 4.855575E-01, 5.003083E-01
-3.100E-04, 4.795558E-01, 4.975413E-01
-2.100E-04, 4.834098E-01, 5.042612E-01
-1.100E-04, 4.876327E-01, 5.099270E-01
-1.00E-05, 4.892072E-01, 2.5461800E+00
9.00E-05, 5.069222E-01, 4.7637377E+00
1.900E-04, 5.099592E-01, 4.7669001E+00
2.900E-04, 4.843058E-01, 4.7666364E+00
3.900E-04, 4.802871E-01, 4.7649236E+00
4.900E-04, 4.792792E-01, 4.7723022E+00
5.900E-04, 4.873165E-01, 4.7729611E+00
6.900E-04, 4.914339E-01, 4.7653189E+00
7.900E-04, 4.892269E-01, 4.7721705E+00
8.900E-04, 4.862360E-01, 4.7669001E+00
9.900E-04, 4.872045E-01, 4.7666364E+00
1.0900E-03, 4.879555E-01, 4.7719069E+00
1.1900E-03, 5.008745E-01, 4.7663732E+00
1.2900E-03, 4.963617E-01, 4.7683496E+00
1.3900E-03, 4.897408E-01, 4.7704577E+00
1.4900E-03, 5.004792E-01, 4.7695351E+00
1.5900E-03, 4.868948E-01, 4.7733564E+00
1.6900E-03, 4.911968E-01, 4.7650552E+00
1.7900E-03, 4.970468E-01, 4.7657142E+00
1.8900E-03, 4.953933E-01, 4.7679543E+00
1.9900E-03, 4.894641E-01, 4.7657142E+00
2.0900E-03, 4.927185E-01, 4.7716436E+00
2.1900E-03, 4.914603E-01, 4.7632108E+00
2.2900E-03, 4.898594E-01, 4.7775726E+00
2.3900E-03, 4.789037E-01, 4.7712483E+00
2.4900E-03, 4.743448E-01, 4.7715116E+00
2.5900E-03, 4.816508E-01, 4.7705894E+00
2.6900E-03, 4.908081E-01, 4.7723022E+00
2.7900E-03, 5.063227E-01, 4.7697988E+00
2.8900E-03, 4.980087E-01, 4.7683496E+00
2.9900E-03, 4.903864E-01, 4.7699304E+00
3.0900E-03, 4.961838E-01, 4.7674270E+00
3.1900E-03, 4.886077E-01, 4.7678223E+00
3.2900E-03, 4.943787E-01, 4.7712483E+00
3.3900E-03, 4.974685E-01, 4.7699304E+00
3.4900E-03, 4.906170E-01, 4.7692719E+00
3.5900E-03, 4.980746E-01, 4.7655826E+00
3.6900E-03, 4.934564E-01, 4.7699304E+00
3.7900E-03, 4.870134E-01, 4.7726974E+00
3.8900E-03, 4.869343E-01, 4.7734880E+00
3.9900E-03, 4.815586E-01, 4.7684813E+00
4.0900E-03, 4.847537E-01, 4.7733564E+00
4.1900E-03, 4.915262E-01, 4.7725658E+00
4.2900E-03, 4.980285E-01, 4.7713799E+00
4.3900E-03, 4.949650E-01, 4.7670317E+00
4.4900E-03, 4.896222E-01, 4.7721705E+00
4.5900E-03, 4.905116E-01, 4.7674270E+00
4.6900E-03, 4.917567E-01, 4.7704577E+00
4.7900E-03, 4.809723E-01, 4.7687449E+00
4.8900E-03, 4.786994E-01, 4.7696671E+00
4.9900E-03, 4.823030E-01, 4.7686129E+00
5.0900E-03, 4.888580E-01, 4.7712483E+00
5.1900E-03, 5.083386E-01, 4.7672954E+00
5.2900E-03, 5.002815E-01, 4.7716436E+00
5.3900E-03, 5.046954E-01, 4.7719069E+00
5.4900E-03, 5.052357E-01, 4.7712483E+00
5.5900E-03, 5.050117E-01, 4.7700624E+00
5.6900E-03, 5.034767E-01, 4.7726974E+00
5.7900E-03, 5.014344E-01, 4.7707210E+00
5.8900E-03, 4.955580E-01, 4.7665048E+00
5.9900E-03, 5.013949E-01, 4.7694035E+00
6.0900E-03, 5.102820E-01, 4.7653189E+00
6.1900E-03, 5.072318E-01, 4.7653189E+00
6.2900E-03, 5.007097E-01, 4.7701941E+00
6.3900E-03, 5.040564E-01, 4.7654505E+00
6.4900E-03, 4.966186E-01, 4.7666364E+00
6.5900E-03, 5.037270E-01, 4.7632108E+00
6.6900E-03, 5.101898E-01, 4.7667685E+00
6.7900E-03, 5.114349E-01, 4.7640014E+00
6.8900E-03, 5.003605E-01, 4.7638698E+00
6.9900E-03, 5.007097E-01, 4.7676907E+00
7.0900E-03, 5.017770E-01, 4.7738833E+00
7.1900E-03, 4.957885E-01, 4.7683496E+00
7.2900E-03, 5.017440E-01, 4.7642646E+00
7.3900E-03, 4.902744E-01, 4.7686129E+00
7.4900E-03, 4.970271E-01, 4.7654505E+00
7.5900E-03, 5.031736E-01, 4.7659779E+00
7.6900E-03, 5.055980E-01, 4.7661095E+00
7.7900E-03, 5.039840E-01, 4.7674270E+00
7.8900E-03, 5.035755E-01, 4.7690082E+00
7.9900E-03, 5.078049E-01, 4.7692719E+00
8.0900E-03, 5.012368E-01, 4.7654505E+00
8.1900E-03, 5.063688E-01, 4.7684813E+00
8.2900E-03, 4.974882E-01, 4.7663732E+00
8.3900E-03, 5.068365E-01, 4.7661095E+00
8.4900E-03, 5.037138E-01, 4.7701941E+00
8.5900E-03, 5.103742E-01, 4.7672954E+00
8.6900E-03, 5.044451E-01, 4.7694035E+00
8.7900E-03, 5.081607E-01, 4.7641330E+00
8.8900E-03, 4.987333E-01, 4.7708530E+00
8.9900E-03, 5.014608E-01, 4.7686129E+00
9.0900E-03, 5.158883E-01, 4.7709846E+00
9.1900E-03, 5.040959E-01, 4.7705894E+00
9.2900E-03, 5.071330E-01, 4.7665048E+00
9.3900E-03, 4.984698E-01, 4.7711163E+00
9.4900E-03, 5.073240E-01, 4.7683496E+00
9.5900E-03, 5.026795E-01, 4.7750692E+00
9.6900E-03, 5.009996E-01, 4.7734880E+00
9.7900E-03, 5.028574E-01, 4.7688766E+00
9.8900E-03, 4.973565E-01, 4.7686129E+00
9.9900E-03, 5.044649E-01, 4.7708530E+00
